%YAML 1.1
%TAG !u! tag:unity3d.com,2011:
--- !u!114 &11400000
MonoBehaviour:
  m_ObjectHideFlags: 0
  m_CorrespondingSourceObject: {fileID: 0}
  m_PrefabInstance: {fileID: 0}
  m_PrefabAsset: {fileID: 0}
  m_GameObject: {fileID: 0}
  m_Enabled: 1
  m_EditorHideFlags: 0
  m_Script: {fileID: 13312, guid: 0000000000000000e000000000000000, type: 0}
  m_Name: PrototypeTileset_0
  m_EditorClassIdentifier: 
  m_Sprite: {fileID: -1185076068767145978, guid: 549a77b15898ab34188aa0afc0b2d49a, type: 3}
  m_Color: {r: 0.6875288, g: 0.5241189, b: 0.735849, a: 1}
  m_Transform:
    e00: 1
    e01: 0
    e02: 0
    e03: 0
    e10: 0
    e11: 1
    e12: 0
    e13: 0
    e20: 0
    e21: 0
    e22: 1
    e23: 0
    e30: 0
    e31: 0
    e32: 0
    e33: 1
  m_InstancedGameObject: {fileID: 0}
  m_Flags: 1
  m_ColliderType: 0
